THEREMIN/midi_volume_sender_tb.vcd
$date
	Wed Jul 16 18:05:35 2025
$end
$version
	Icarus Verilog
$end
$timescale
	1ps
$end
$scope module midi_volume_sender_tb $end
$var wire 1 ! midi_send $end
$var wire 8 " midi_byte [7:0] $end
$var reg 1 # clk $end
$var reg 16 $ distance_cm [15:0] $end
$var reg 1 % distance_ready $end
$var reg 1 & rst $end
$var reg 1 ' uart_ready $end
$scope module dut $end
$var wire 1 # clk $end
$var wire 16 ( distance_cm [15:0] $end
$var wire 1 % distance_ready $end
$var wire 1 & rst $end
$var wire 1 ' uart_ready $end
$var parameter 2 ) IDLE $end
$var parameter 2 * SEND1 $end
$var parameter 2 + SEND2 $end
$var parameter 2 , SEND3 $end
$var reg 8 - midi_byte [7:0] $end
$var reg 1 ! midi_send $end
$var reg 2 . state [1:0] $end
$var reg 8 / volume [7:0] $end
$upscope $end
$upscope $end
$enddefinitions $end
$comment Show the parameter values. $end
$dumpall
b11 ,
b10 +
b1 *
b0 )
$end
#0
$dumpvars
bx /
b0 .
b0 -
b0 (
0'
1&
0%
b0 $
0#
b0 "
0!
$end
#5000
1#
#10000
0#
0&
#15000
1#
#20000
0#
1%
b100 $
b100 (
#25000
b1 .
b1111111 /
1#
#30000
0#
0%
#35000
1#
#40000
0#
#45000
1#
#50000
0#
1'
#55000
b10 .
1!
b10110000 "
b10110000 -
1#
#60000
0#
0'
#65000
0!
1#
#70000
0#
#75000
1#
#80000
0#
1'
#85000
b11 .
1!
b111 "
b111 -
1#
#90000
0#
0'
#95000
0!
1#
#100000
0#
#105000
1#
#110000
0#
1'
#115000
b0 .
1!
b1111111 "
b1111111 -
1#
#120000
0#
0'
#125000
0!
1#
#130000
0#
#135000
1#
#140000
0#
#145000
1#
#150000
0#
#155000
1#
#160000
0#
#165000
1#
#170000
0#
1%
b100011 $
b100011 (
#175000
b1 .
b111010 /
1#
#180000
0#
0%
#185000
1#
#190000
0#
#195000
1#
#200000
0#
1'
#205000
b10 .
1!
b10110000 "
b10110000 -
1#
#210000
0#
0'
#215000
0!
1#
#220000
0#
#225000
1#
#230000
0#
1'
#235000
b11 .
1!
b111 "
b111 -
1#
#240000
0#
0'
#245000
0!
1#
#250000
0#
#255000
1#
#260000
0#
1'
#265000
b0 .
1!
b111010 "
b111010 -
1#
#270000
0#
0'
#275000
0!
1#
#280000
0#
#285000
1#
#290000
0#
#295000
1#
#300000
0#
#305000
1#
#310000
0#
#315000
1#
#320000
0#
1%
b1000110 $
b1000110 (
#325000
b1 .
b0 /
1#
#330000
0#
0%
#335000
1#
#340000
0#
#345000
1#
#350000
0#
1'
#355000
b10 .
1!
b10110000 "
b10110000 -
1#
#360000
0#
0'
#365000
0!
1#
#370000
0#
#375000
1#
#380000
0#
1'
#385000
b11 .
1!
b111 "
b111 -
1#
#390000
0#
0'
#395000
0!
1#
#400000
0#
#405000
1#
#410000
0#
1'
#415000
b0 .
1!
b0 "
b0 -
1#
#420000
0#
0'
#425000
0!
1#
